{
  "required": true,
  "minVersion": "0.8",
  "package": "one.hbn.outvoted.mixin",
  "compatibilityLevel": "JAVA_17",
  "mixins": [
  ],
  "client": [
    "ExampleFabricMixin"
  ],
  "server": [
  ],
  "injectors": {
    "defaultRequire": 1
  }
}
  